// Jest Snapshot v1, https://goo.gl/fbAQLP

exports[`pruebas en </FirstApp> debe hacer match con el snapshot 1`] = `
<div>
  <h1
    data-testid="maria"
  >
     
    Hola, soy oriannys
     
  </h1>
  <p>
    no hay subtitulo
  </p>
  <p>
    no hay subtitulo
  </p>
  <h2>
    no hay nombre
  </h2>
</div>
`;
